<?xml version="1.0" encoding="UTF-8"?>
<svg width="16px" height="16px" viewBox="0 0 16 16" version="1.1" xmlns="http://www.w3.org/2000/svg" xmlns:xlink="http://www.w3.org/1999/xlink">
    <!-- Generator: Sketch 51.3 (57544) - http://www.bohemiancoding.com/sketch -->
    <title>Fill 3</title>
    <desc>Created with Sketch.</desc>
    <defs></defs>
    <g id="screens" stroke="none" stroke-width="1" fill="none" fill-rule="evenodd">
        <g id="home" transform="translate(-103.000000, -466.000000)" fill="#FFFFFF">
            <g id="Group-7" transform="translate(16.000000, 200.000000)">
                <g id="Group-6" transform="translate(0.000000, 224.000000)">
                    <g id="Group-5" transform="translate(87.000000, 35.000000)">
                        <path d="M3.21777769,13.9244444 C4.49777733,16.4399999 6.56000009,18.4933336 9.07555556,19.7822231 L11.0311109,17.8266678 C11.2711114,17.5866674 11.6266666,17.5066681 11.937778,17.6133347 C12.9333342,17.9422235 14.0088889,18.1200011 15.1111111,18.1200011 C15.5999991,18.1200011 16,18.5200009 16,19.0088908 L16,22.1111111 C16,22.5999991 15.5999991,23 15.1111111,23 C6.76444418,23 0,16.235555 0,7.88888889 C0,7.4 0.4,7 0.888888889,7 L4,7 C4.48888907,7 4.88888889,7.4 4.88888889,7.88888889 C4.88888889,9 5.06666649,10.0666665 5.39555529,11.062222 C5.4933328,11.373333 5.42222169,11.7199996 5.17333307,11.9688891 L3.21777769,13.9244444 Z" id="Fill-3"></path>
                    </g>
                </g>
            </g>
        </g>
    </g>
</svg>