<?xml version="1.0" encoding="UTF-8"?>
<svg width="11px" height="16px" viewBox="0 0 11 16" version="1.1" xmlns="http://www.w3.org/2000/svg" xmlns:xlink="http://www.w3.org/1999/xlink">
    <!-- Generator: Sketch 51.3 (57544) - http://www.bohemiancoding.com/sketch -->
    <title>Fill 3</title>
    <desc>Created with Sketch.</desc>
    <defs></defs>
    <g id="Symbols" stroke="none" stroke-width="1" fill="none" fill-rule="evenodd">
        <g id="route-planner-input" transform="translate(-8.000000, -8.000000)" fill="#000000">
            <path d="M13.5,8 C10.4592858,8 8,10.5040001 8,13.6 C8,17.8 13.5,24 13.5,24 C13.5,24 19,17.8 19,13.6 C19,10.5040001 16.5407142,8 13.5,8 Z M13.5,15.6 C12.4157142,15.6 11.5357143,14.7040001 11.5357143,13.6 C11.5357143,12.4959999 12.4157142,11.6 13.5,11.6 C14.5842858,11.6 15.4642857,12.4959999 15.4642857,13.6 C15.4642857,14.7040001 14.5842858,15.6 13.5,15.6 Z" id="Fill-3"></path>
        </g>
    </g>
</svg>